<?xml version="1.0" encoding="utf-8"?>
<!-- Generator: Adobe Illustrator 16.0.0, SVG Export Plug-In . SVG Version: 6.00 Build 0)  -->
<!DOCTYPE svg PUBLIC "-//W3C//DTD SVG 1.1//EN" "http://www.w3.org/Graphics/SVG/1.1/DTD/svg11.dtd">
<svg version="1.1" id="Ebene_1" xmlns="http://www.w3.org/2000/svg" xmlns:xlink="http://www.w3.org/1999/xlink" x="0px" y="0px"
	 width="218.809px" height="172.351px" viewBox="0 0 218.809 172.351" enable-background="new 0 0 218.809 172.351"
	 xml:space="preserve">
<rect x="1750.69" y="-284.173" fill="#FFFFFF" width="3071.386" height="3107.379"/>
<rect x="1740.477" y="-3684.005" fill="#FFFFFF" width="3071.385" height="3107.379"/>
<rect x="-4876.231" y="-3639.767" fill="#FFFFFF" width="3071.386" height="3107.379"/>
<g>
	<path fill="#AAAD00" d="M673.086,60.556l-33.938-19.594l-5.509,25.919l38.968-4.094C672.819,62.054,672.981,61.309,673.086,60.556z
		"/>
	<path fill="#D4D700" d="M673.067,60.544c0.352-2.535,0.089-5.129-0.889-7.324L662.153,30.7L652.127,8.181
		c-2.246-5.043-8.574-8.697-14.064-8.121l-24.516,2.578l-24.516,2.577c-2.389,0.252-4.768,1.32-6.787,2.893L673.067,60.544z"/>
	<path fill="#A7A8AA" d="M632.162,102.094l18.321-16.495l18.319-16.494c1.784-1.608,3.081-3.871,3.79-6.331l-104.3,10.961
		c1.205,2.258,2.942,4.203,5.023,5.405l42.698,24.65C620.793,106.551,628.06,105.788,632.162,102.094z"/>
	<path fill="#D9DADB" d="M606.992,69.665l-26.924-59.509c-1.53,1.741-2.658,3.789-3.111,5.922l-5.125,24.111l-5.126,24.115
		c-0.647,3.047,0.02,6.5,1.582,9.43L606.992,69.665z"/>
	<path fill="#373739" d="M616.179,27.7L582.241,8.107c-0.772,0.601-1.487,1.282-2.135,2.015c-0.013,0.014-0.024,0.027-0.037,0.042
		l16.089,35.561L616.179,27.7z"/>
</g>
<path fill="#373739" d="M69.94,10.163l-0.004-0.008L69.94,10.163z"/>
<g>
	<path fill="#373739" d="M0.312,148.76H3.65l0.489-5.341l4.718-0.312l-0.489,5.652h6.409l-0.312,3.65H8.057l-0.668,7.478
		c-0.133,1.469-0.444,4.095-0.444,5.831c0,1.469,0.4,2.537,2.136,2.537c1.469,0,3.205-0.49,4.451-1.202l-0.356,3.961
		c-1.379,0.624-3.16,1.157-5.163,1.157c-4.852,0-5.786-2.67-5.786-5.83c0-0.579,0.223-3.071,0.445-5.965l0.668-7.967H0L0.312,148.76
		z"/>
	<path fill="#373739" d="M43.241,171.906h-7.3c0.179-2.492,0.579-5.52,1.469-10.237h-0.133c-1.38,4.852-3.783,10.504-9.259,10.504
		c-4.807,0-6.098-4.05-6.098-8.635c0-4.584,2.003-15.222,12.73-15.222c2.181,0,4.006,0.489,5.786,1.023h1.869
		c-0.223,0.846-0.623,3.783-0.757,5.563l-1.157,13.354h3.16L43.241,171.906z M28.998,167.989c4.273,0,8.19-12.018,8.19-15.534
		c-0.668-0.223-1.691-0.489-2.894-0.489c-6.098,0-7.655,7.878-7.655,11.706C26.64,166.208,27.352,167.989,28.998,167.989z"/>
	<path fill="#373739" d="M52.539,137.677h8.368l-0.979,11.351c-0.178,2.137-0.757,5.029-1.113,7.077h0.09
		c1.023-3.071,3.827-7.789,9.436-7.789c3.249,0,5.029,2.314,5.029,4.807c0,4.985-4.896,7.522-9.035,8.991
		c0.4,0.355,1.068,1.023,1.38,1.38l4.051,4.763h3.115l-0.312,3.649H66.56l-7.611-9.303c-0.578,3.116-1.068,6.988-1.291,9.303h-4.45
		c0.489-2.982,0.756-6.098,1.023-9.169l1.78-21.409h-3.783L52.539,137.677z M66.471,152.5c-2.582,0-6.276,3.338-7.3,8.902
		c1.646-0.401,9.214-2.894,9.214-6.988C68.385,153.3,67.672,152.5,66.471,152.5z"/>
	<path fill="#373739" d="M82.271,148.76h3.338l0.49-5.341l4.718-0.312l-0.489,5.652h6.409l-0.312,3.65h-6.409l-0.668,7.478
		c-0.134,1.469-0.445,4.095-0.445,5.831c0,1.469,0.4,2.537,2.137,2.537c1.469,0,3.204-0.49,4.451-1.202l-0.356,3.961
		c-1.38,0.624-3.16,1.157-5.163,1.157c-4.852,0-5.786-2.67-5.786-5.83c0-0.579,0.223-3.071,0.445-5.965l0.667-7.967H81.96
		L82.271,148.76z"/>
	<path fill="#373739" d="M104.913,148.76h8.323l-0.445,4.14c-0.312,2.938-0.801,8.68-0.801,10.193c0,2.581,0.4,5.073,2.359,5.073
		c3.16,0,6.142-5.652,6.943-17.447l0.134-1.959h4.718l-0.668,6.944c-0.223,2.225-0.355,4.584-0.355,6.098
		c0,4.807,0.801,6.364,2.581,6.364c3.383,0,6.143-7.566,6.365-15.756h-3.16l0.355-3.65h7.522
		c-0.223,12.018-3.694,23.591-11.929,23.591c-4.807,0-5.386-5.03-5.386-8.323h-0.089c-0.356,2.314-2.448,8.323-8.057,8.323
		c-5.029,0-6.053-4.095-6.053-8.946c0-3.65,0.4-7.345,0.667-10.994h-3.338L104.913,148.76z"/>
	<path fill="#373739" d="M163.442,170.749c-1.157,0.668-4.139,1.603-7.478,1.603c-5.92,0-9.08-3.65-9.08-9.57
		c0-6.453,3.294-14.465,12.107-14.465c3.338,0,6.632,1.646,6.632,5.386c0,7.344-10.193,8.946-13.754,9.258
		c0,3.204,1.336,5.475,5.697,5.475c1.825,0,4.451-0.801,6.499-1.959L163.442,170.749z M158.19,151.965
		c-4.406,0-5.92,4.585-6.32,7.878c4.362-0.757,9.036-2.003,9.036-5.563C160.906,153.078,160.104,151.965,158.19,151.965z"/>
	<path fill="#373739" d="M174.228,148.76h7.611c-0.268,3.027-0.623,6.099-0.979,8.947h0.089c1.202-4.808,3.205-9.392,7.968-9.392
		c0.846,0,1.691,0.089,2.136,0.178l-0.667,4.495c-0.356-0.089-0.846-0.223-1.336-0.223c-6.009,0-7.922,10.994-8.59,17.626
		l-0.134,1.514h-4.718c0.356-2.492,0.623-5.875,0.801-8.101l0.891-11.395h-3.383L174.228,148.76z"/>
	<path fill="#373739" d="M197.978,137.677h8.367l-0.979,11.351c-0.179,2.137-0.757,5.029-1.113,7.077h0.089
		c1.024-3.071,3.828-7.789,9.438-7.789c3.248,0,5.029,2.314,5.029,4.807c0,4.985-4.896,7.522-9.035,8.991
		c0.4,0.355,1.068,1.023,1.379,1.38l4.051,4.763h3.115l-0.311,3.649h-6.01l-7.611-9.303c-0.579,3.116-1.068,6.988-1.291,9.303
		h-4.451c0.49-2.982,0.757-6.098,1.024-9.169l1.78-21.409h-3.783L197.978,137.677z M211.91,152.5c-2.583,0-6.277,3.338-7.301,8.902
		c1.646-0.401,9.215-2.894,9.215-6.988C213.824,153.3,213.111,152.5,211.91,152.5z"/>
</g>
<path d="M-4747.171-3521.423v2879.212h2834.646v-2879.212H-4747.171z M-3563.079-1875.997l445.223-46.793l91.988-432.819
	l566.998,327.364c-1.746,12.578-4.453,25.035-7.994,37.273l-0.326,0.031c-11.846,41.002-33.496,78.707-63.24,105.529
	l-306.064,275.57l-306.096,275.588c-68.543,61.705-189.945,74.465-269.778,28.355l-713.358-411.838
	c-34.777-20.084-63.794-52.584-83.928-90.307l646.249-67.921l-0.015-0.065l-646.323,67.938
	c-26.104-48.947-37.241-106.639-26.431-157.543l85.641-402.89l85.624-402.823c7.57-35.642,26.415-69.848,51.973-98.938l0.041,0.098
	c0.204-0.229,0.4-0.449,0.604-0.669c10.81-12.237,22.761-23.617,35.666-33.659l567,327.34l-334.453,301.12l180.933,399.905h0
	 M-2459.18-2028.44l-1517.398-876.074c33.741-26.285,73.478-44.126,113.394-48.335l409.587-43.049l409.586-43.065
	c91.727-9.626,197.451,51.428,234.979,135.681l167.512,376.229l167.496,376.254
	C-2457.694-2114.13-2453.305-2070.788-2459.18-2028.44z"/>
<g opacity="0.9">
	<path fill="#E2001A" d="M-4119.909-1716.014c-81.017-46.763-131.398-159.887-111.96-251.389l169.903-799.791
		c19.438-91.501,111.457-174.375,204.487-184.164l813.151-85.562c93.03-9.789,200.283,52.117,238.34,137.569l332.651,746.912
		c38.057,85.452,12.324,206.585-57.185,269.186l-607.562,547.179c-69.509,62.601-192.666,75.56-273.682,28.797L-4119.909-1716.014z"
		/>
</g>
<polygon fill="#D4D700" points="-4026.625,-2933.56 -2404.142,-1997.072 -2875.183,-3054.717 "/>
<polygon fill="#AAAD00" points="-2875.183,-3054.717 -3264.463,-1222.254 -2404.142,-1997.072 "/>
<polygon fill="#A7A8AA" points="-4267.211,-1801.037 -3264.463,-1222.254 -2404.142,-1997.072 "/>
<polygon fill="#D9DADB" points="-3264.463,-1222.254 -4267.211,-1801.037 -4026.625,-2933.56 "/>
<polygon fill="#373739" points="-4267.211,-1801.037 -4026.625,-2933.56 -2875.183,-3054.717 "/>
<rect x="-1483.465" y="-3631.597" fill="#FFFFFF" width="3071.385" height="3107.379"/>
<g opacity="0.9">
	<path fill="#E2001A" d="M-727.143-1707.844c-81.016-46.763-131.398-159.887-111.96-251.389l169.903-799.791
		c19.438-91.501,111.457-174.375,204.487-184.164l813.151-85.562c93.029-9.789,200.282,52.117,238.34,137.569l332.65,746.912
		c38.058,85.452,12.324,206.585-57.185,269.186l-607.561,547.179c-69.509,62.601-192.666,75.56-273.682,28.797L-727.143-1707.844z"
		/>
</g>
<polygon fill="#D4D700" points="-633.859,-2925.39 988.623,-1988.902 517.582,-3046.547 "/>
<polygon fill="#D4D700" points="-633.859,-2925.39 988.623,-1988.902 517.582,-3046.547 "/>
<polygon fill="#AAAD00" points="517.582,-3046.547 128.303,-1214.084 988.623,-1988.902 "/>
<polygon fill="#A7A8AA" points="-874.445,-1792.867 128.303,-1214.084 988.623,-1988.902 "/>
<polygon fill="#D9DADB" points="128.303,-1214.084 -874.445,-1792.867 -633.859,-2925.39 "/>
<polygon fill="#373739" points="-874.445,-1792.867 -633.859,-2925.39 517.582,-3046.547 "/>
<path fill="#373739" d="M517.582-3046.547L-633.859-2925.39l-240.586,1132.523l1002.748,578.782l860.32-774.817L517.582-3046.547z
	 M-162.817-1867.746l-179.921-403.984l328.613-295.954l383.017,221.075l-91.896,432.585L-162.817-1867.746z"/>
<g opacity="0.9">
	<path fill="#E2007A" d="M-727.143-1707.844c-81.016-46.763-131.398-159.887-111.96-251.389l169.903-799.791
		c19.438-91.501,111.457-174.375,204.487-184.164l813.151-85.562c93.029-9.789,200.282,52.117,238.34,137.569l332.65,746.912
		c38.058,85.452,12.324,206.585-57.185,269.186l-607.561,547.179c-69.509,62.601-192.666,75.56-273.682,28.797L-727.143-1707.844z"
		/>
</g>
<polygon fill="#CBBB9D" points="-162.817,-1867.746 276.994,-1914.023 368.891,-2346.608 -14.126,-2567.683 -342.739,-2271.729 "/>
<path fill="#009EE0" d="M919.428-2144.269l-332.65-746.912c-38.058-85.452-145.311-147.358-238.34-137.569l-813.151,85.562
	c-93.03,9.789-185.049,92.663-204.487,184.164l-169.903,799.791c-19.438,91.501,30.944,204.626,111.96,251.389L-19-1299.107
	c81.016,46.763,204.173,33.804,273.682-28.797l607.561-547.179C931.752-1937.683,957.485-2058.817,919.428-2144.269z
	 M276.994-1914.023l-439.812,46.277l-179.921-403.984l328.613-295.954l383.017,221.075L276.994-1914.023z"/>
<path fill="#009EE0" d="M6949.431,4722.635l-332.65-746.912c-38.06-85.451-145.31-147.357-238.34-137.568l-813.152,85.561
	c-93.029,9.789-185.049,92.664-204.486,184.164l-169.902,799.791c-19.438,91.502,30.943,204.627,111.96,251.389l708.144,408.738
	c81.016,46.762,204.173,33.803,273.682-28.797l607.561-547.18C6961.755,4929.221,6987.486,4808.086,6949.431,4722.635z
	 M6306.996,4952.881l-439.812,46.277l-179.921-403.984l328.611-295.953l383.018,221.074L6306.996,4952.881z"/>
<polygon fill="#A7A8AA" points="2354.849,-1845.275 3357.597,-1266.493 4217.917,-2041.311 "/>
<g>
	<polygon fill="#D9DADB" points="2886.554,-2324.138 3215.167,-2620.092 2595.434,-2977.798 2354.848,-1845.275 3357.596,-1266.493 
			"/>
	<polygon fill="#D4D700" points="4217.917,-2041.311 3746.876,-3098.956 3746.875,-3098.956 3746.875,-3098.956 2595.434,-2977.798 
		2595.436,-2977.798 2886.555,-2324.138 3215.168,-2620.092 3598.184,-2399.017 3506.287,-1966.432 4217.916,-2041.311 
		4217.916,-2041.311 	"/>
	<polygon fill="#AAAD00" points="3598.184,-2399.017 3357.596,-1266.493 4217.916,-2041.311 	"/>
	<polygon fill="#A7A8AA" points="2354.848,-1845.275 3357.596,-1266.493 4217.916,-2041.311 	"/>
	<polygon fill="#373739" points="3215.167,-2620.092 2595.434,-2977.798 2886.554,-2324.138 	"/>
</g>
<path fill="#009EE0" d="M4148.721-2196.677l-332.65-746.912c-38.059-85.452-145.311-147.358-238.34-137.569l-813.152,85.562
	c-93.029,9.79-185.049,92.663-204.486,184.164l-169.902,799.791c-19.438,91.501,30.943,204.626,111.96,251.389l708.144,408.737
	c81.016,46.763,204.174,33.804,273.682-28.797l607.561-547.179C4161.045-1990.092,4186.777-2111.226,4148.721-2196.677z
	 M3506.287-1966.432l-439.813,46.277l-179.921-403.984l328.612-295.954l383.018,221.075L3506.287-1966.432z"/>
<rect x="1740.477" y="3125.191" fill="#FFFFFF" width="3071.385" height="3107.379"/>
<path fill="#009EE0" d="M4148.721,4612.519l-332.65-746.912c-38.059-85.451-145.311-147.357-238.34-137.568l-813.152,85.561
	c-93.029,9.789-185.049,92.663-204.486,184.164l-169.902,799.791c-19.438,91.502,30.943,204.627,111.96,251.389l708.144,408.738
	c81.016,46.762,204.174,33.803,273.682-28.797l607.561-547.18C4161.045,4819.105,4186.777,4697.97,4148.721,4612.519z
	 M3506.287,4842.765l-439.813,46.277l-179.921-403.984l328.612-295.953l383.018,221.074L3506.287,4842.765z"/>
<path fill="#D9DADB" d="M3066.476,4889.042L3066.476,4889.042l-179.922-403.984l328.612-295.953l0,0h0.001l-565.618-326.472
	c-44.362,34.556-78.474,83.456-89.453,135.11l-169.909,799.824c-19.431,91.5,30.95,204.616,111.963,251.375l200.299,115.611
	l507.903,293.16c35.263,20.336,78.502,29.359,121.823,27.91L3066.476,4889.042z"/>
<path fill="#D4D700" d="M3816.07,3865.607c-38.059-85.451-145.311-147.357-238.34-137.568l-406.576,42.78l-406.651,42.789
	c-52.499,5.547-104.667,34.365-143.647,74.866l265.699,596.583l328.611-295.952l0.001,0.001l0.001-0.001l383.016,221.074
	l-91.896,432.586l649.488-68.34c15.58-54.039,14.432-113.66-7.055-161.906L3816.07,3865.607z"/>
<path fill="#A7A8AA" d="M3548.35,5370.908l543.186-489.203c30.264-27.256,52.225-65.608,64.24-107.279l-649.488,68.34l0,0
	l-121.689,12.805l-967.609,101.813c20.425,38.259,49.887,71.201,85.161,91.561l200.299,115.611l507.903,293.16
	c81.012,46.72,204.119,33.756,273.612-28.82L3548.35,5370.908z"/>
<path fill="#373739" d="M2886.554,4485.058l328.612-295.953l0,0h0.001l-565.618-326.472c-10.154,7.909-19.77,16.569-28.694,25.843
	L2886.554,4485.058z"/>
<path fill="#AAAD00" d="M3483.964,5428.894l64.386-57.986l543.186-489.203c39.246-35.344,64.531-89.349,72.264-145.055
	l-565.615-326.471l-91.896,432.586l0,0l-135.707,638.818C3413.271,5473.981,3453.701,5456.144,3483.964,5428.894z"/>
<path fill="#A7A8AA" d="M4091.535,4881.705c30.264-27.255,52.225-65.608,64.24-107.279l-649.488,68.34l0,0l-23.472,2.47
	l-1065.827,112.148c20.422,38.253,49.881,71.192,85.148,91.553l708.25,408.798c81.017,46.698,204.106,33.727,273.588-28.85
	L4091.535,4881.705z"/>
<rect x="2895.506" y="4471.359" transform="matrix(0.8665 0.4993 -0.4993 0.8665 2827.377 -1171.1895)" fill="#E2001A" width="1414.87" height="456.268"/>
<rect x="2340.777" y="4877.407" transform="matrix(0.9945 -0.1043 0.1043 0.9945 -526.729 377.4668)" fill="#172983" width="2011.599" height="697.51"/>
<rect x="2787.808" y="3676.525" transform="matrix(0.9133 -0.4072 0.4072 0.9133 -1439.2065 1585.4141)" fill="#39A9DC" width="434.428" height="994.639"/>
<rect x="-1535.693" y="3052.71" fill="#FFFFFF" width="3071.386" height="3107.379"/>
<g>
	<path fill="#D9DADB" d="M3076.689,1479.678L3076.689,1479.678l-179.922-403.984l328.612-295.953l0,0h0.001l-565.618-326.472
		c-44.362,34.556-78.474,83.456-89.453,135.11L2400.4,1388.204c-19.431,91.5,30.95,204.615,111.963,251.375l200.299,115.611
		l507.903,293.16c35.263,20.336,78.502,29.359,121.823,27.91L3076.689,1479.678z"/>
	<path fill="#D4D700" d="M3826.284,456.243c-38.06-85.451-145.311-147.357-238.34-137.568l-406.576,42.78l-406.651,42.789
		c-52.499,5.547-104.667,34.365-143.647,74.866l265.699,596.583l328.611-295.952l0.001,0.001l0.001-0.001l383.016,221.074
		l-91.896,432.586l649.488-68.34c15.58-54.039,14.433-113.66-7.055-161.906L3826.284,456.243z"/>
	<path fill="#373739" d="M2896.768,1075.694l328.612-295.953l0,0h0.001l-565.618-326.472c-10.154,7.909-19.77,16.569-28.694,25.843
		L2896.768,1075.694z"/>
	<path fill="#AAAD00" d="M3494.178,2019.53l64.386-57.986l543.186-489.203c39.245-35.344,64.531-89.349,72.264-145.055
		l-565.615-326.471l-91.896,432.586l0,0l-135.707,638.818C3423.485,2064.617,3463.915,2046.78,3494.178,2019.53z"/>
	<path fill="#A7A8AA" d="M3558.563,1961.543l543.186-489.203c30.264-27.256,52.225-65.608,64.24-107.279l-649.488,68.34l0,0
		l-121.689,12.805l-967.609,101.813c20.425,38.259,49.887,71.201,85.161,91.561l200.299,115.611l507.903,293.16
		c81.012,46.719,204.119,33.756,273.612-28.82L3558.563,1961.543z"/>
</g>
<g>
	<path fill="#D4D700" d="M-77.022,4131.051l16.019-14.427l0.001,0.001l0.001-0.001l383.016,221.074l-4.405,20.737l566.335,326.321
		c10.766-49.247,7.839-101.538-11.393-144.719L539.9,3793.126c-38.059-85.451-145.311-147.357-238.34-137.568l-406.576,42.78
		l-406.651,42.789c-47.417,5.01-94.56,29.007-131.964,63.445L-77.022,4131.051z"/>
	<path fill="#D9DADB" d="M-202.962,4831.677l-6.732-15.115h-0.001l-179.921-403.984l13.84-12.464l-266.195-597.051
		c-36.786,33.31-64.428,76.683-74.103,122.2l-169.909,799.824c-12.075,56.86,2.815,122.063,35.257,174.508L-202.962,4831.677z"/>
	<path fill="#373739" d="M-389.616,4412.578l328.612-295.953l0,0h0.001l-565.618-326.472c-10.154,7.909-19.77,16.569-28.694,25.843
		L-389.616,4412.578z"/>
	<path fill="#AAAD00" d="M874.144,4718.743c6.358-17.582,10.904-35.98,13.485-54.573l-565.615-326.471l-91.896,432.586
		l-3.473,16.349L874.144,4718.743z"/>
	<path fill="#A7A8AA" d="M272.18,5298.427l543.186-489.203c30.264-27.256,52.225-65.608,64.24-107.279l-649.488,68.34l0,0
		l-121.689,12.805l-967.609,101.813c20.425,38.259,49.887,71.201,85.161,91.561l200.299,115.611l507.903,293.16
		c81.012,46.719,204.119,33.756,273.612-28.82L272.18,5298.427z"/>
</g>
<g>
	<path fill="#D4D700" d="M104.939,28.575l0.96-0.865h0.001l0,0l22.967,13.257l-0.264,1.243l33.96,19.568
		c0.646-2.953,0.471-6.089-0.683-8.679L141.934,8.311c-2.282-5.125-8.714-8.837-14.293-8.25l-24.38,2.565L78.876,5.193
		c-2.844,0.3-5.671,1.739-7.913,3.804L104.939,28.575z"/>
	<path fill="#D9DADB" d="M97.387,70.587l-0.403-0.906l0,0L86.194,45.457l0.83-0.748L71.063,8.907
		c-2.206,1.997-3.864,4.598-4.444,7.327L56.43,64.196c-0.724,3.409,0.169,7.319,2.114,10.465L97.387,70.587z"/>
	<path fill="#373739" d="M86.194,45.457l19.705-17.747l0,0h0.001L71.982,8.132c-0.609,0.475-1.186,0.993-1.721,1.55L86.194,45.457z"
		/>
	<path fill="#AAAD00" d="M161.977,63.815c0.381-1.054,0.653-2.157,0.809-3.272l-33.918-19.576l-5.51,25.939l-0.209,0.98
		L161.977,63.815z"/>
	<path fill="#A7A8AA" d="M125.879,98.577l32.572-29.336c1.815-1.634,3.132-3.934,3.853-6.433l-38.946,4.098l0,0l-7.298,0.769
		l-58.022,6.104c1.225,2.295,2.991,4.27,5.106,5.491l12.011,6.933l30.457,17.579c4.857,2.802,12.24,2.024,16.407-1.729
		L125.879,98.577z"/>
</g>
</svg>
