username,email,password_hash,auth_key
importer_user_1,user_csv_import_1@google.com,password,auth_key
importer_user_2,user_csv_import_2@google.com,password,auth_key
importer_user_3,user_csv_import_3@google.com,password,auth_key
importer_user_4,user_csv_import_4@google.com,password,auth_key
