username,email,password_hash,auth_key
importer_user_5,user_csv_import_5@google.com,password,auth_key
importer_user_6,user_csv_import_6@google.com,password,auth_key
importer_user_7,user_csv_import_7@google.com,password,auth_key
importer_user_8,user_csv_import_8@google.com,password,auth_key
